\relax 
\providecommand \oddpage@label [2]{}
\@writefile{lof}{\contentsline {figure}{\numberline {1}{\ignorespaces Three-dimensional schematic of device, showing three layers (ITO, GaAs, Mg)\relax }}{2}\protected@file@percent }
\providecommand*\caption@xref[2]{\@setref\relax\@undefined{#1}}
\newlabel{device}{{1}{2}}
\@writefile{lof}{\contentsline {figure}{\numberline {2}{\ignorespaces Visual representation of band gaps and the flow of electrons through our device due to the applied voltage\relax }}{2}\protected@file@percent }
\newlabel{band}{{2}{2}}
\@writefile{lof}{\contentsline {figure}{\numberline {3}{\ignorespaces Material properties of resources available at firm for selecting the \textit  {illuminated surface} and \textit  {back surface} components.\relax }}{3}\protected@file@percent }
\newlabel{table1}{{3}{3}}
\@writefile{lof}{\contentsline {figure}{\numberline {4}{\ignorespaces Material properties of resources available at firm for selecting the \textit  {detection region} of the device.\relax }}{3}\protected@file@percent }
\newlabel{table2}{{4}{3}}
\newlabel{fig:python1}{{5a}{11}}
\newlabel{sub@fig:python1}{{a}{11}}
\newlabel{fig:python2}{{5b}{11}}
\newlabel{sub@fig:python2}{{b}{11}}
\@writefile{lof}{\contentsline {figure}{\numberline {5}{\ignorespaces Python Script for Iterative Calculations\relax }}{11}\protected@file@percent }
\newlabel{fig:test}{{5}{11}}
